C:/Users/User14/Desktop/titoma_cat_final/titoma_final_task/johan_stm32/prueba_2_touch/ttm_final_touch/TouchGFX/target/TouchGFXGPIO.cpp:37:6:static void touchgfx::GPIO::init()	0	static
C:/Users/User14/Desktop/titoma_cat_final/titoma_final_task/johan_stm32/prueba_2_touch/ttm_final_touch/TouchGFX/target/TouchGFXGPIO.cpp:45:6:static void touchgfx::GPIO::set(touchgfx::GPIO::GPIO_ID)	0	static
C:/Users/User14/Desktop/titoma_cat_final/titoma_final_task/johan_stm32/prueba_2_touch/ttm_final_touch/TouchGFX/target/TouchGFXGPIO.cpp:53:6:static void touchgfx::GPIO::clear(touchgfx::GPIO::GPIO_ID)	0	static
C:/Users/User14/Desktop/titoma_cat_final/titoma_final_task/johan_stm32/prueba_2_touch/ttm_final_touch/TouchGFX/target/TouchGFXGPIO.cpp:61:6:static void touchgfx::GPIO::toggle(touchgfx::GPIO::GPIO_ID)	0	static
C:/Users/User14/Desktop/titoma_cat_final/titoma_final_task/johan_stm32/prueba_2_touch/ttm_final_touch/TouchGFX/target/TouchGFXGPIO.cpp:69:6:static bool touchgfx::GPIO::get(touchgfx::GPIO::GPIO_ID)	0	static
