C:/Users/User14/Desktop/titoma_cat_final/titoma_final_task/johan_stm32/prueba_2_touch/ttm_final_touch/TouchGFX/generated/texts/src/TypedTextDatabase.cpp:43:43:const touchgfx::TypedText::TypedTextData* TypedTextDatabase::getInstance(touchgfx::LanguageId)	0	static
C:/Users/User14/Desktop/titoma_cat_final/titoma_final_task/johan_stm32/prueba_2_touch/ttm_final_touch/TouchGFX/generated/texts/src/TypedTextDatabase.cpp:48:10:uint16_t TypedTextDatabase::getInstanceSize()	0	static
C:/Users/User14/Desktop/titoma_cat_final/titoma_final_task/johan_stm32/prueba_2_touch/ttm_final_touch/TouchGFX/generated/texts/src/TypedTextDatabase.cpp:53:24:const touchgfx::Font** TypedTextDatabase::getFonts()	0	static
C:/Users/User14/Desktop/titoma_cat_final/titoma_final_task/johan_stm32/prueba_2_touch/ttm_final_touch/TouchGFX/generated/texts/src/TypedTextDatabase.cpp:58:23:const touchgfx::Font* TypedTextDatabase::setFont(touchgfx::FontId, const touchgfx::Font*)	0	static
C:/Users/User14/Desktop/titoma_cat_final/titoma_final_task/johan_stm32/prueba_2_touch/ttm_final_touch/TouchGFX/generated/texts/src/TypedTextDatabase.cpp:65:6:void TypedTextDatabase::resetFont(touchgfx::FontId)	8	static
C:/Users/User14/Desktop/titoma_cat_final/titoma_final_task/johan_stm32/prueba_2_touch/ttm_final_touch/TouchGFX/generated/texts/src/TypedTextDatabase.cpp:80:1:cpp)	8	static
